TRISTAN IS BIG AND RAL IS SMALL IS TRUE
TRISTAN IS BIG AND STEB IS SMART IS TRUE
TRISTAN IS NOT BIG AND STEB IS SMART IS A LIE
RAL IS SMALL IS TRUE
STEB IS SMART IS TRUE
TRISTAN IS BIG IS TRUE

SID IS SQUID XOR ASHAY IS SID IS A LIE
ASHAY IS SID AND SID IS SQUID IS TRUE
SID IS NOT SQUID XOR ASHAY IS SID IS TRUE
ASHAY IS SID IS TRUE
SID IS SQUID IS TRUE

RONAK IS SMART AND MEGGIE IS MEAN IS A LIE
ANAND IS TALL OR MEGGIE IS MEAN IS TRUE
RONAK IS SMART OR RONAK IS SMART IS TRUE
ANAND IS TALL IS TRUE
MEGGIE IS MEAN IS FALSE
RONAK IS SMART IS TRUE
